<svg width="70" height="46" viewBox="0 0 70 46" fill="none" xmlns="http://www.w3.org/2000/svg">
<path d="M1.5238 1.33301V39.4282C1.5238 40.6912 2.0255 41.9024 2.91853 42.7954C3.81156 43.6885 5.02277 44.1902 6.28571 44.1902H20.5714C21.8344 44.1902 23.0456 43.6885 23.9386 42.7954C24.8316 41.9024 25.3333 40.6912 25.3333 39.4282V20.3806C25.3333 19.1177 25.835 17.9065 26.7281 17.0135C27.6211 16.1204 28.8323 15.6187 30.0952 15.6187H39.619C40.882 15.6187 42.0932 16.1204 42.9862 17.0135C43.8792 17.9065 44.3809 19.1177 44.3809 20.3806V39.4282C44.3809 40.6912 44.8826 41.9024 45.7757 42.7954C46.6687 43.6885 47.8799 44.1902 49.1429 44.1902H63.4286C64.6915 44.1902 65.9027 43.6885 66.7957 42.7954C67.6888 41.9024 68.1905 40.6912 68.1905 39.4282V1.33301" stroke="#494747" stroke-width="2" stroke-linecap="round" stroke-linejoin="round"/>
</svg>
